{
  "templateCharactor": {
    "rarityCounter": { "A": 0, "S": 0, "SS": 0 },
    "templateLayer": {
      "rarity": null,
      "idx": 0,
      "type": null,
      "weapon": null,
      "resistance": {
        "刃": null,
        "衝": null,
        "貫": null,
        "火": null,
        "水": null,
        "風": null,
        "光": null,
        "闇": null
      },
      "baseLimit": {
        "物攻": { "min": null, "max": null, "determined": null, "limitStage": 0 },
        "物防": { "min": null, "max": null, "determined": null, "limitStage": 0 },
        "命中": { "min": null, "max": null, "determined": null, "limitStage": 0 },
        "速さ": { "min": null, "max": null, "determined": null, "limitStage": 0 },
        "魔攻": { "min": null, "max": null, "determined": null, "limitStage": 0 },
        "魔防": { "min": null, "max": null, "determined": null, "limitStage": 0 },
        "回復": { "min": null, "max": null, "determined": null, "limitStage": 0 },
        "幸運": { "min": null, "max": null, "determined": null, "limitStage": 0 }
      },
      "statusMagnification": {
        "initial": {
          "物攻": null,
          "物防": null,
          "命中": null,
          "速さ": null,
          "魔攻": null,
          "魔防": null,
          "回復": null,
          "幸運": null
        },
        "LLv50_GLv20": {
          "物攻": null,
          "物防": null,
          "命中": null,
          "速さ": null,
          "魔攻": null,
          "魔防": null,
          "回復": null,
          "幸運": null
        }
      },
      "LLvUpStep": {
        "物攻": null,
        "物防": null,
        "命中": null,
        "速さ": null,
        "魔攻": null,
        "魔防": null,
        "回復": null,
        "幸運": null
      },
      "GLvUpStep": {
        "物攻": null,
        "物防": null,
        "命中": null,
        "速さ": null,
        "魔攻": null,
        "魔防": null,
        "回復": null,
        "幸運": null
      },
      "skill": [null, null, null],
      "ability": [null, null, null],
      "specialSkill": null
    }
  }
}
